<?xml version="1.0" encoding="UTF-8" standalone="no"?>
<!-- Created with Inkscape (http://www.inkscape.org/) -->

<svg
   xmlns:dc="http://purl.org/dc/elements/1.1/"
   xmlns:cc="http://creativecommons.org/ns#"
   xmlns:rdf="http://www.w3.org/1999/02/22-rdf-syntax-ns#"
   xmlns:svg="http://www.w3.org/2000/svg"
   xmlns="http://www.w3.org/2000/svg"
   xmlns:sodipodi="http://sodipodi.sourceforge.net/DTD/sodipodi-0.dtd"
   xmlns:inkscape="http://www.inkscape.org/namespaces/inkscape"
   width="230mm"
   height="190mm"
   viewBox="0 0 230 190"
   version="1.1"
   id="svg3785"
   inkscape:version="0.92.2 (5c3e80d, 2017-08-06)"
   sodipodi:docname="ownnotif.svg">
  <title
     id="title4941">OwnNotif</title>
  <defs
     id="defs3779" />
  <sodipodi:namedview
     id="base"
     pagecolor="#ffffff"
     bordercolor="#666666"
     borderopacity="1.0"
     inkscape:pageopacity="0.0"
     inkscape:pageshadow="2"
     inkscape:zoom="1.45"
     inkscape:cx="435.67668"
     inkscape:cy="322.98003"
     inkscape:document-units="mm"
     inkscape:current-layer="layer2"
     showgrid="true"
     inkscape:window-width="1508"
     inkscape:window-height="1467"
     inkscape:window-x="209"
     inkscape:window-y="325"
     inkscape:window-maximized="0">
    <inkscape:grid
       type="xygrid"
       id="grid4939" />
  </sodipodi:namedview>
  <metadata
     id="metadata3782">
    <rdf:RDF>
      <cc:Work
         rdf:about="">
        <dc:format>image/svg+xml</dc:format>
        <dc:type
           rdf:resource="http://purl.org/dc/dcmitype/StillImage" />
        <dc:title>OwnNotif</dc:title>
        <dc:date>2018-02-04</dc:date>
        <dc:creator>
          <cc:Agent>
            <dc:title>Marc-Andre Harbec</dc:title>
          </cc:Agent>
        </dc:creator>
        <dc:rights>
          <cc:Agent>
            <dc:title></dc:title>
          </cc:Agent>
        </dc:rights>
        <dc:publisher>
          <cc:Agent>
            <dc:title>https://www.ownnotif.com</dc:title>
          </cc:Agent>
        </dc:publisher>
        <cc:license
           rdf:resource="https://www.gnu.org/licenses/agpl-3.0.en.html" />
      </cc:Work>
    </rdf:RDF>
  </metadata>
  <g
     inkscape:label="Fist"
     inkscape:groupmode="layer"
     id="layer1"
     style="display:inline"
     transform="translate(0,-107)">
    <g
       id="g3821"
       transform="matrix(0.55276578,0.77279248,-0.77279248,0.55276578,131.9586,59.41411)"
       inkscape:export-filename="D:\projects\ownnotif\_misc\logo\vectors-export\ownnotif.png"
       inkscape:export-xdpi="462.89423"
       inkscape:export-ydpi="462.89423">
      <path
         inkscape:connector-curvature="0"
         id="path3777"
         d="m 97.647818,232.02581 c -5.00422,-0.20302 -5.29734,-0.25442 -5.39622,-0.94607 -0.0575,-0.40227 0.21694,-2.8629 0.60989,-5.46806 0.39295,-2.60516 1.27243,-8.78479 1.9544,-13.7325 0.68197,-4.94771 1.393,-9.78959 1.58006,-10.75972 1.00419,-5.2079 1.33561,-4.19472 -3.91958,-11.98236 -2.58848,-3.83586 -5.58805,-8.26529 -6.66572,-9.84318 -1.07766,-1.5779 -3.8401,-5.64703 -6.13875,-9.04252 -2.29864,-3.39548 -4.85263,-7.14062 -5.67552,-8.32251 -1.8703,-2.68625 -2.6305,-4.14371 -2.6305,-5.04323 0,-0.7825 0.32512,-1.27268 9.73691,-14.68009 3.67752,-5.23875 7.07611,-10.08063 7.55243,-10.75972 1.44997,-2.06727 2.20839,-2.82223 2.83514,-2.82223 0.47526,0 9.273812,3.7579 15.329692,6.54738 0.58208,0.26812 3.3602,1.50221 6.17361,2.74242 6.18121,2.72482 6.18873,2.73429 5.64548,7.10603 -0.58431,4.70215 -0.70172,4.85537 -4.05798,5.29576 -0.97014,0.12729 -2.24014,0.2946 -2.82222,0.37179 -6.24561,0.82828 -6.96381,0.87697 -8.14093,0.55195 -1.55948,-0.43059 -3.24062,-1.69236 -5.660252,-4.24827 -2.27891,-2.40727 -2.89609,-2.19597 -2.03687,0.69734 0.31301,1.05402 0.78994,2.23167 1.05983,2.617 1.19321,1.70355 0.0363,3.36583 -2.34258,3.36583 -0.69585,0 -1.55791,0.21404 -1.91568,0.47565 -1.17776,0.8612 -1.00713,0.95709 7.04203,3.95761 1.940282,0.72328 3.879272,1.63151 4.308872,2.01828 0.4296,0.38677 3.27493,5.00683 6.32296,10.26681 3.04803,5.25997 6.69459,11.54797 8.10347,13.97331 3.34,5.74972 3.37437,5.90872 1.60706,7.4349 -0.76946,0.66449 -1.81485,1.49584 -2.32309,1.84746 -1.27928,0.88506 -0.79659,1.42975 1.04349,1.17754 2.70926,-0.37135 2.66392,-2.55916 0.48509,23.40677 -1.01725,12.12291 -1.10086,12.95424 -1.3422,13.34473 -0.27981,0.45273 -13.21326,0.74033 -20.322322,0.4519 z m 28.847112,0.0706 c -4.90046,-0.11605 -5.40481,-0.18788 -5.74194,-0.8178 -0.33559,-0.62705 0.0164,-8.07482 0.51673,-10.93279 0.0849,-0.48507 0.24565,-2.23132 0.35718,-3.88056 0.11154,-1.64924 0.28252,-3.63361 0.37995,-4.40972 0.0974,-0.77611 0.49232,-4.80254 0.87753,-8.94762 0.38521,-4.14508 0.7982,-7.69477 0.91774,-7.88819 0.20669,-0.33443 1.48106,-0.22237 3.21445,0.28267 0.49401,0.14393 0.79375,0.0795 0.79375,-0.17065 0,-0.37357 -5.86884,-10.54382 -10.30319,-17.85464 -6.1398,-10.12254 -9.49134,-16.14732 -9.16448,-16.47418 0.60745,-0.60745 6.28308,0.35405 8.6796,1.47039 1.17976,0.54956 3.17689,1.43144 4.43807,1.95973 4.88897,2.04794 6.11479,2.88361 10.04816,6.85007 2.77122,2.79455 4.11361,3.90714 4.71413,3.90714 0.52219,0 3.1184,-1.68633 6.86748,-4.46067 3.31534,-2.45336 6.27398,-4.47743 6.57476,-4.49792 0.44348,-0.0302 0.5269,0.32626 0.44125,1.88566 -0.16959,3.08781 -1.76066,11.13724 -3.09555,15.66083 -1.89066,6.40694 -3.87059,10.0317 -7.92064,14.50077 -2.18847,2.41489 -2.18847,2.41489 -2.03212,17.72897 0.1783,17.46424 0.48423,15.89833 -3.14579,16.10137 -1.1246,0.0629 -4.46229,0.0571 -7.41707,-0.0129 z m 9.25289,-58.94485 c -0.95344,-0.71353 -6.17361,-6.38957 -6.17361,-6.71274 0,-0.20404 2.50032,-3.12996 5.55625,-6.50203 3.05594,-3.37208 7.14375,-7.90743 9.08403,-10.07856 1.94028,-2.17114 3.78118,-3.94774 4.09088,-3.94802 0.61039,-7.9e-4 2.20169,1.65207 5.28506,5.48871 2.85736,3.55543 3.52772,4.61256 3.30048,5.20475 -0.32424,0.84496 -19.69025,16.82634 -20.37895,16.8173 -0.22625,-0.003 -0.57011,-0.1242 -0.76414,-0.26941 z m -14.2875,-10.34358 c -5.525,-2.48119 -5.92491,-2.77294 -5.39501,-3.93594 0.49841,-1.0939 18.56536,-25.12255 19.17078,-25.49672 0.18819,-0.11631 0.77719,0.12869 1.30889,0.54443 1.52593,1.19314 8.56888,8.16081 9.15836,9.06047 0.68203,1.04091 0.48069,1.35849 -4.06556,6.41304 -2.96279,3.29405 -8.62943,9.70049 -10.73557,12.13715 -2.23556,2.58639 -3.19523,3.42867 -3.89986,3.42282 -0.42874,-0.004 -2.92265,-0.96893 -5.54203,-2.14525 z m -15.69861,-6.09929 c -5.31329,-1.91326 -6.010832,-2.25558 -6.116542,-3.00179 -0.11084,-0.7823 -0.0355,-0.82483 1.058332,-0.59748 3.58425,0.74496 5.9949,0.52161 14.98382,-1.38834 0.41436,-0.088 0.94718,0.0734 1.18405,0.35884 0.34784,0.41912 0.25673,0.80862 -0.47366,2.02506 -1.04905,1.74716 -3.34131,4.29821 -4.10961,4.57358 -0.29104,0.10431 -3.22791,-0.78213 -6.52639,-1.96987 z m 14.36084,-12.7987 c 0.10305,-4.52664 0.10305,-4.52664 -4.13028,-6.66366 -3.36187,-1.69709 -4.22882,-2.28459 -4.21139,-2.85391 0.0358,-1.16937 8.31755,-13.48218 9.24104,-13.73901 0.49248,-0.13695 1.16551,0.0179 1.76389,0.40583 1.37876,0.89386 10.66896,10.07906 10.66896,10.54837 0,0.61277 -12.34681,16.58114 -12.92188,16.7121 -0.43278,0.0986 -0.49721,-0.59378 -0.41034,-4.40972 z m -13.12611,-11.03121 c -0.29105,-0.1592 -1.48167,-0.69028 -2.64584,-1.18018 -1.16416,-0.48989 -3.38666,-1.44205 -4.938892,-2.11591 -1.55222,-0.67386 -3.17941,-1.33476 -3.61597,-1.46868 -1.07742,-0.33051 -1.02128,-1.46056 0.15902,-3.20086 0.52402,-0.77264 1.08994,-1.56355 1.2576,-1.75758 0.16766,-0.19403 2.3186,-3.05153 4.779872,-6.35 4.00482,-5.36707 4.57676,-5.99028 5.44312,-5.93109 0.59756,0.0408 2.28529,1.08194 4.40972,2.72024 4.62979,3.57038 6.08748,4.9732 6.08748,5.85833 0,0.40875 -1.94469,3.66656 -4.32153,7.23956 -3.70452,5.56885 -4.44745,6.4949 -5.20347,6.48601 -0.48507,-0.006 -1.12007,-0.14063 -1.41111,-0.29984 z"
         style="fill:#000000;stroke-width:0.35277778" />
    </g>
  </g>
  <g
     inkscape:groupmode="layer"
     id="layer2"
     inkscape:label="Megaphone"
     transform="translate(0,-107)">
    <g
       transform="matrix(-1.868743,0.00100279,0.00100279,1.868743,224.69353,91.518319)"
       id="g3868"
       inkscape:export-filename="D:\projects\ownnotif\_misc\logo\vectors-export\ownnotif.png"
       inkscape:export-xdpi="462.89423"
       inkscape:export-ydpi="462.89423">
      <path
         inkscape:connector-curvature="0"
         d="m 97.754,33.043 h -3.047 v 19.931 h 3.047 c 1.569,0 2.854,-1.285 2.854,-2.855 V 35.898 c -0.002,-1.57 -1.285,-2.855 -2.854,-2.855 z"
         id="path3858" />
      <path
         inkscape:connector-curvature="0"
         d="m 0.607,13.68 v 58.656 c 0,2.449 1.96,2.931 3.505,1.641 0,0 22.056,-18.411 55.59,-20.736 V 32.771 C 26.187,30.446 4.112,12.038 4.112,12.038 2.569,10.75 0.607,11.233 0.607,13.68 Z"
         id="path3864" />
      <path
         inkscape:connector-curvature="0"
         d="M 90.142,29.049 H 64.27 c -1.568,0 -2.854,1.284 -2.854,2.854 v 22.211 c 0,1.569 1.283,2.854 2.854,2.854 h 25.872 c 0.263,0 0.514,-0.047 0.755,-0.113 1.024,-0.284 1.825,-1.118 2.041,-2.168 0.039,-0.187 0.059,-0.376 0.059,-0.571 V 31.902 c 0,-0.195 -0.02,-0.386 -0.059,-0.571 -0.267,-1.298 -1.421,-2.282 -2.796,-2.282 z"
         id="path3866" />
    </g>
  </g>
</svg>
